<?xml version="1.0" encoding="UTF-8" standalone="no"?>
<!-- Created with Inkscape (http://www.inkscape.org/) -->

<svg
   xmlns:dc="http://purl.org/dc/elements/1.1/"
   xmlns:cc="http://creativecommons.org/ns#"
   xmlns:rdf="http://www.w3.org/1999/02/22-rdf-syntax-ns#"
   xmlns:svg="http://www.w3.org/2000/svg"
   xmlns="http://www.w3.org/2000/svg"
   xmlns:xlink="http://www.w3.org/1999/xlink"
   xmlns:sodipodi="http://sodipodi.sourceforge.net/DTD/sodipodi-0.dtd"
   xmlns:inkscape="http://www.inkscape.org/namespaces/inkscape"
   version="1.0"
   width="550"
   height="80"
   id="svg1"
   inkscape:version="0.91 r13725"
   sodipodi:docname="header.svg"
   inkscape:export-filename="header.png"
   inkscape:export-xdpi="90"
   inkscape:export-ydpi="90">
  <metadata
     id="metadata99">
    <rdf:RDF>
      <cc:Work
         rdf:about="">
        <dc:format>image/svg+xml</dc:format>
        <dc:type
           rdf:resource="http://purl.org/dc/dcmitype/StillImage" />
        <dc:title />
      </cc:Work>
    </rdf:RDF>
  </metadata>
  <sodipodi:namedview
     pagecolor="#ffffff"
     bordercolor="#666666"
     borderopacity="1"
     objecttolerance="10"
     gridtolerance="10"
     guidetolerance="10"
     inkscape:pageopacity="0"
     inkscape:pageshadow="2"
     inkscape:window-width="1876"
     inkscape:window-height="1051"
     id="namedview97"
     showgrid="true"
     inkscape:zoom="3.7019608"
     inkscape:cx="323.04646"
     inkscape:cy="6.4540434"
     inkscape:window-x="0"
     inkscape:window-y="0"
     inkscape:window-maximized="1"
     inkscape:current-layer="svg1">
    <inkscape:grid
       type="xygrid"
       id="grid4227"
       empspacing="8" />
  </sodipodi:namedview>
  <defs
     id="defs2">
    <linearGradient
       inkscape:collect="always"
       id="linearGradient4310">
      <stop
         style="stop-color:#dbeef9;stop-opacity:1"
         offset="0"
         id="stop4312" />
      <stop
         style="stop-color:#2397d4;stop-opacity:1"
         offset="1"
         id="stop4314" />
    </linearGradient>
    <linearGradient
       inkscape:collect="always"
       id="linearGradient4233">
      <stop
         style="stop-color:#2397d4;stop-opacity:1;"
         offset="0"
         id="stop4235" />
      <stop
         id="stop4260"
         offset="0.20000014"
         style="stop-color:#2397d4;stop-opacity:1" />
      <stop
         style="stop-color:#262f45;stop-opacity:1"
         offset="1"
         id="stop4237" />
    </linearGradient>
    <linearGradient
       x1="68.715599"
       y1="35.413502"
       x2="83.1838"
       y2="57.513901"
       id="linearGradient5055"
       gradientUnits="userSpaceOnUse">
      <stop
         id="stop5057"
         style="stop-color:#5c5c5c;stop-opacity:1"
         offset="0" />
      <stop
         id="stop5059"
         style="stop-color:#838383;stop-opacity:1"
         offset="1" />
    </linearGradient>
    <linearGradient
       gradientUnits="userSpaceOnUse"
       id="linearGradient4239"
       y2="57.513901"
       x2="83.1838"
       y1="35.413502"
       x1="68.715599">
      <stop
         offset="0"
         style="stop-color:#d6d6d6;stop-opacity:1"
         id="stop4241" />
      <stop
         offset="1"
         style="stop-color:#b8b8b8;stop-opacity:1"
         id="stop4243" />
    </linearGradient>
    <linearGradient
       inkscape:collect="always"
       xlink:href="#linearGradient4239"
       id="linearGradient4237"
       x1="56"
       y1="128"
       x2="56"
       y2="96"
       gradientUnits="userSpaceOnUse"
       gradientTransform="matrix(0.5,0,0,0.5,464,0)" />
    <linearGradient
       id="linearGradient4226"
       inkscape:collect="always">
      <stop
         id="stop4228"
         offset="0"
         style="stop-color:#262f45;stop-opacity:1;" />
      <stop
         id="stop4230"
         offset="1"
         style="stop-color:#485982;stop-opacity:1" />
    </linearGradient>
    <linearGradient
       inkscape:collect="always"
       id="linearGradient4143">
      <stop
         style="stop-color:#197cf1;stop-opacity:1"
         offset="0"
         id="stop4145" />
      <stop
         style="stop-color:#20bcfa;stop-opacity:1"
         offset="1"
         id="stop4147" />
    </linearGradient>
    <linearGradient
       inkscape:collect="always"
       id="linearGradient4230"
       gradientTransform="scale(0.70086531,1.4268077)"
       x1="35.249393"
       y1="7.5986395"
       x2="42.80423"
       y2="7.5986395"
       gradientUnits="userSpaceOnUse">
      <stop
         style="stop-color:#292c2f;stop-opacity:1"
         offset="0"
         id="stop4232" />
      <stop
         style="stop-color:#000000;stop-opacity:0;"
         offset="1"
         id="stop4234" />
    </linearGradient>
    <linearGradient
       inkscape:collect="always"
       xlink:href="#linearGradient4226"
       id="linearGradient4357"
       x1="64"
       y1="96"
       x2="64"
       y2="0"
       gradientUnits="userSpaceOnUse"
       gradientTransform="matrix(0.5,0,0,0.5,464,4)" />
    <linearGradient
       inkscape:collect="always"
       xlink:href="#linearGradient4143"
       id="linearGradient4197-9"
       gradientUnits="userSpaceOnUse"
       x1="12.410412"
       y1="12.698467"
       x2="462.83844"
       y2="12.698467"
       gradientTransform="matrix(0,-0.07104354,0.07104354,0,487.09786,44.88168)" />
    <linearGradient
       inkscape:collect="always"
       xlink:href="#linearGradient4230"
       id="linearGradient4985"
       x1="48"
       y1="16"
       x2="96"
       y2="64"
       gradientUnits="userSpaceOnUse"
       gradientTransform="matrix(0.5,0,0,0.5,464,4)" />
    <linearGradient
       inkscape:collect="always"
       xlink:href="#linearGradient4230"
       id="linearGradient4993"
       x1="56"
       y1="72"
       x2="56"
       y2="120"
       gradientUnits="userSpaceOnUse"
       gradientTransform="matrix(0.5,0,0,0.5,464,0)" />
    <linearGradient
       inkscape:collect="always"
       xlink:href="#linearGradient4230"
       id="linearGradient4993-7"
       x1="56"
       y1="72"
       x2="56"
       y2="120"
       gradientUnits="userSpaceOnUse"
       gradientTransform="matrix(0.5,0,0,0.5,476,0)" />
    <linearGradient
       inkscape:collect="always"
       xlink:href="#linearGradient4230"
       id="linearGradient5027"
       x1="32"
       y1="56"
       x2="104"
       y2="128"
       gradientUnits="userSpaceOnUse"
       gradientTransform="matrix(0.5,0,0,0.5,464,0)" />
    <linearGradient
       inkscape:collect="always"
       xlink:href="#linearGradient5055"
       id="linearGradient5053"
       x1="64"
       y1="120"
       x2="64"
       y2="128"
       gradientUnits="userSpaceOnUse"
       gradientTransform="matrix(0.5,0,0,0.5,464,4)" />
    <linearGradient
       inkscape:collect="always"
       xlink:href="#linearGradient4230"
       id="linearGradient5027-2"
       x1="31.719809"
       y1="-8.2801905"
       x2="104"
       y2="64"
       gradientUnits="userSpaceOnUse"
       gradientTransform="matrix(0.5,0,0,0.5,464,0)" />
    <linearGradient
       inkscape:collect="always"
       xlink:href="#linearGradient4230"
       id="linearGradient5027-2-3"
       x1="31.552965"
       y1="111.55296"
       x2="72"
       y2="152"
       gradientUnits="userSpaceOnUse"
       gradientTransform="matrix(0.5,0,0,0.5,464,0)" />
    <linearGradient
       inkscape:collect="always"
       id="linearGradient4286">
      <stop
         style="stop-color:#2397d4;stop-opacity:1;"
         offset="0"
         id="stop4288" />
      <stop
         style="stop-color:#55b2e4;stop-opacity:1"
         offset="1"
         id="stop4290" />
    </linearGradient>
    <linearGradient
       id="linearGradient4226-3"
       inkscape:collect="always">
      <stop
         id="stop4228-6"
         offset="0"
         style="stop-color:#848fbd;stop-opacity:1" />
      <stop
         id="stop4230-7"
         offset="1"
         style="stop-color:#ffffff;stop-opacity:1" />
    </linearGradient>
    <linearGradient
       gradientUnits="userSpaceOnUse"
       y2="122.81936"
       x2="538.42279"
       y1="260.88647"
       x1="538.42279"
       id="linearGradient4232"
       xlink:href="#linearGradient4226-3"
       inkscape:collect="always" />
    <linearGradient
       gradientUnits="userSpaceOnUse"
       y2="30.334101"
       x2="103.20959"
       y1="114.29383"
       x1="103.20959"
       id="linearGradient4257"
       xlink:href="#linearGradient4286"
       inkscape:collect="always" />
    <linearGradient
       gradientUnits="userSpaceOnUse"
       y2="704.56073"
       x2="798.79193"
       y1="745.60773"
       x1="798.79193"
       id="linearGradient4265"
       xlink:href="#linearGradient4286"
       inkscape:collect="always" />
    <radialGradient
       inkscape:collect="always"
       xlink:href="#linearGradient4233"
       id="radialGradient4255"
       cx="456"
       cy="40"
       fx="456"
       fy="40"
       r="275"
       gradientTransform="matrix(-0.72727275,-2.5901491e-8,1.3644691e-7,-0.72727272,787.63638,69.090924)"
       gradientUnits="userSpaceOnUse" />
    <radialGradient
       inkscape:collect="always"
       xlink:href="#linearGradient4310"
       id="radialGradient4381"
       cx="456"
       cy="48.428581"
       fx="456"
       fy="48.428581"
       r="87"
       gradientTransform="matrix(-1.6551731,-7.4872124e-7,7.4872097e-7,-1.6551725,1210.759,120.15799)"
       gradientUnits="userSpaceOnUse" />
    <linearGradient
       inkscape:collect="always"
       xlink:href="#linearGradient4230"
       id="linearGradient4206"
       x1="181.01933"
       y1="214.96046"
       x2="181.01933"
       y2="294.15643"
       gradientUnits="userSpaceOnUse"
       gradientTransform="matrix(0.70710678,-0.70710678,0.70710678,0.70710678,0,0)" />
  </defs>
  <rect
     style="color:#000000;clip-rule:nonzero;display:inline;overflow:visible;visibility:visible;opacity:1;isolation:auto;mix-blend-mode:normal;color-interpolation:sRGB;color-interpolation-filters:linearRGB;solid-color:#000000;solid-opacity:1;fill:url(#radialGradient4255);fill-opacity:1;fill-rule:nonzero;stroke:none;stroke-width:0;stroke-linecap:butt;stroke-linejoin:miter;stroke-miterlimit:4;stroke-dasharray:none;stroke-dashoffset:0;stroke-opacity:1;marker:none;color-rendering:auto;image-rendering:auto;shape-rendering:auto;text-rendering:auto;enable-background:accumulate"
     id="rect4201"
     width="550"
     height="80"
     x="0"
     y="0" />
  <rect
     style="color:#000000;clip-rule:nonzero;display:inline;overflow:visible;visibility:visible;opacity:1;isolation:auto;mix-blend-mode:normal;color-interpolation:sRGB;color-interpolation-filters:linearRGB;solid-color:#000000;solid-opacity:1;fill:#2397d4;fill-opacity:1;fill-rule:nonzero;stroke:none;stroke-width:0;stroke-linecap:butt;stroke-linejoin:miter;stroke-miterlimit:4;stroke-dasharray:none;stroke-dashoffset:0;stroke-opacity:1;marker:none;color-rendering:auto;image-rendering:auto;shape-rendering:auto;text-rendering:auto;enable-background:accumulate"
     id="rect4262"
     width="96"
     height="80"
     x="456"
     y="0" />
  <g
     id="g4242"
     transform="translate(-40,4)">
    <path
       sodipodi:nodetypes="cccccccc"
       inkscape:connector-curvature="0"
       id="path5019-9"
       d="m 511,12 13,13 0,39 -18,-4 -12,-12 8,-4 -12,-12 z"
       style="opacity:0.2;fill:url(#linearGradient5027-2);fill-opacity:1;fill-rule:evenodd;stroke:none;stroke-width:1px;stroke-linecap:butt;stroke-linejoin:miter;stroke-opacity:1" />
    <rect
       y="44"
       x="480"
       height="8"
       width="32"
       id="rect5085"
       style="color:#000000;clip-rule:nonzero;display:inline;overflow:visible;visibility:visible;opacity:1;isolation:auto;mix-blend-mode:normal;color-interpolation:sRGB;color-interpolation-filters:linearRGB;solid-color:#000000;solid-opacity:1;fill:#29334b;fill-opacity:1;fill-rule:nonzero;stroke:none;stroke-width:0;stroke-linecap:butt;stroke-linejoin:miter;stroke-miterlimit:4;stroke-dasharray:none;stroke-dashoffset:0;stroke-opacity:1;marker:none;color-rendering:auto;image-rendering:auto;shape-rendering:auto;text-rendering:auto;enable-background:accumulate" />
    <path
       sodipodi:nodetypes="cccccccc"
       inkscape:connector-curvature="0"
       id="path5019-9-6"
       d="m 491,42 9,17 8,9 -12,12 -12,-12 4,-8 -8,-8 z"
       style="opacity:0.2;fill:url(#linearGradient5027-2-3);fill-opacity:1;fill-rule:evenodd;stroke:none;stroke-width:1px;stroke-linecap:butt;stroke-linejoin:miter;stroke-opacity:1" />
    <rect
       y="48"
       x="484"
       height="20"
       width="24"
       id="rect4229"
       style="color:#000000;clip-rule:nonzero;display:inline;overflow:visible;visibility:visible;opacity:1;isolation:auto;mix-blend-mode:normal;color-interpolation:sRGB;color-interpolation-filters:linearRGB;solid-color:#000000;solid-opacity:1;fill:url(#linearGradient4237);fill-opacity:1;fill-rule:nonzero;stroke:none;stroke-width:0;stroke-linecap:butt;stroke-linejoin:miter;stroke-miterlimit:4;stroke-dasharray:none;stroke-dashoffset:0;stroke-opacity:1;marker:none;color-rendering:auto;image-rendering:auto;shape-rendering:auto;text-rendering:auto;enable-background:accumulate" />
    <path
       sodipodi:nodetypes="cccccc"
       inkscape:connector-curvature="0"
       id="path5019"
       d="m 508,48 13,13 3,3 -28,0 -16,-16 z"
       style="opacity:0.2;fill:url(#linearGradient5027);fill-opacity:1;fill-rule:evenodd;stroke:none;stroke-width:1px;stroke-linecap:butt;stroke-linejoin:miter;stroke-opacity:1" />
    <rect
       y="52"
       x="488"
       height="4"
       width="4"
       id="rect4245"
       style="color:#000000;clip-rule:nonzero;display:inline;overflow:visible;visibility:visible;opacity:1;isolation:auto;mix-blend-mode:normal;color-interpolation:sRGB;color-interpolation-filters:linearRGB;solid-color:#000000;solid-opacity:1;fill:url(#linearGradient4993);fill-opacity:1;fill-rule:nonzero;stroke:none;stroke-width:0;stroke-linecap:butt;stroke-linejoin:miter;stroke-miterlimit:4;stroke-dasharray:none;stroke-dashoffset:0;stroke-opacity:1;marker:none;color-rendering:auto;image-rendering:auto;shape-rendering:auto;text-rendering:auto;enable-background:accumulate" />
    <path
       sodipodi:nodetypes="ssccccccccsss"
       inkscape:connector-curvature="0"
       id="rect4249"
       d="m 488,8 c -4.432,0 -8,3.568 -8,8 l 0,12 0,16 0,4 8,0 16,0 8,0 0,-4 0,-16 0,-12 c 0,-4.432 -3.568,-8 -8,-8 z"
       style="color:#000000;clip-rule:nonzero;display:inline;overflow:visible;visibility:visible;opacity:1;isolation:auto;mix-blend-mode:normal;color-interpolation:sRGB;color-interpolation-filters:linearRGB;solid-color:#000000;solid-opacity:1;fill:url(#linearGradient4357);fill-opacity:1;fill-rule:nonzero;stroke:none;stroke-width:0;stroke-linecap:butt;stroke-linejoin:miter;stroke-miterlimit:4;stroke-dasharray:none;stroke-dashoffset:0;stroke-opacity:1;marker:none;color-rendering:auto;image-rendering:auto;shape-rendering:auto;text-rendering:auto;enable-background:accumulate" />
    <path
       sodipodi:nodetypes="ccccccccc"
       inkscape:connector-curvature="0"
       id="path4977"
       d="m 496,12 16,16 0,32 -16,-16 -0.40519,-9 -6,-6 3.40519,-3 3,3 0,-17"
       style="opacity:0.2;fill:url(#linearGradient4985);fill-opacity:1;fill-rule:evenodd;stroke:none;stroke-width:1px;stroke-linecap:butt;stroke-linejoin:miter;stroke-opacity:1" />
    <path
       sodipodi:nodetypes="cccccccsccccccsccccccccccccccccc"
       inkscape:connector-curvature="0"
       id="path1334-7"
       d="m 496.00001,12 -2.4,4.8 1.5125,0 0,16.924989 -2.73749,-3.537484 c -0.16883,-0.210641 -0.261,-0.473301 -0.31563,-0.746881 0.92792,-0.355861 1.54053,-1.246811 1.54062,-2.240625 0,-1.325478 -1.07451,-2.399994 -2.39999,-2.4 -1.32549,5e-6 -2.4,1.07452 -2.4,2.4 2.8e-4,1.035053 0.6641,1.953324 1.64688,2.278125 0.10144,0.6564 0.41052,1.2981 0.83124,1.73437 0.0128,0.0112 3.46562,4.753135 3.46562,4.753135 0.0479,0.05968 0.0773,0.1368 0.11872,0.20312 -1.69663,0.503258 -2.8609,2.061561 -2.8625,3.831251 0,2.209139 1.79087,4 4,4 2.20914,0 4,-1.790861 4,-4 -2e-4,-1.900605 -1.33779,-3.53863 -3.2,-3.918751 l 0,-3.612499 c 0.01,-0.404161 0.22435,-0.799841 0.46563,-1.100001 0,0 3.45912,-4.588415 3.47188,-4.6 0.47052,-0.48795 0.79278,-1.233325 0.84374,-1.96875 l 1.61875,0 0,-4.799999 -4.8,0 0,4.799999 1.55938,0 c -0.0552,0.34675 -0.22562,0.683425 -0.43437,0.943745 l -2.72501,3.5375 0,-12.481244 1.6,0 -2.4,-4.8 z"
       style="font-style:normal;font-variant:normal;font-weight:bold;font-stretch:normal;font-size:12.5px;line-height:125%;font-family:'Clear Sans';-inkscape-font-specification:'Clear Sans Bold';letter-spacing:0px;word-spacing:0px;opacity:1;fill:url(#linearGradient4197-9);fill-opacity:1;stroke:none;stroke-width:1px;stroke-linecap:butt;stroke-linejoin:miter;stroke-opacity:1" />
    <rect
       y="52"
       x="500"
       height="4"
       width="4"
       id="rect4245-5"
       style="color:#000000;clip-rule:nonzero;display:inline;overflow:visible;visibility:visible;opacity:1;isolation:auto;mix-blend-mode:normal;color-interpolation:sRGB;color-interpolation-filters:linearRGB;solid-color:#000000;solid-opacity:1;fill:url(#linearGradient4993-7);fill-opacity:1;fill-rule:nonzero;stroke:none;stroke-width:0;stroke-linecap:butt;stroke-linejoin:miter;stroke-miterlimit:4;stroke-dasharray:none;stroke-dashoffset:0;stroke-opacity:1;marker:none;color-rendering:auto;image-rendering:auto;shape-rendering:auto;text-rendering:auto;enable-background:accumulate" />
    <path
       inkscape:connector-curvature="0"
       id="path5045"
       d="m 484,64 24,0 0,4 -24,0 0,-4"
       style="opacity:0.6;fill:url(#linearGradient5053);fill-opacity:1;fill-rule:evenodd;stroke:none;stroke-width:1px;stroke-linecap:butt;stroke-linejoin:miter;stroke-opacity:1" />
  </g>
  <g
     id="layer1"
     transform="matrix(0.27014288,0,0,0.27014288,6.23214,-132.84383)">
    <path
       style="fill:url(#linearGradient4265);fill-opacity:1;stroke:none"
       id="path9360-1"
       d="m 791,745.27883 c -4.97059,0 -9,-4.02943 -9,-9.00003 0,-4.9705 4.02941,-8.99993 9,-8.99993 4.97048,0 9,4.02943 9,8.99993 0,4.9706 -4.02952,9.00003 -9,9.00003 z"
       inkscape:connector-curvature="0" />
    <g
       style="fill:#2397d4;fill-opacity:1"
       id="g5423"
       transform="translate(-0.20803944,7.0000505)">
      <path
         id="path3042-0-6-4"
         transform="translate(95.208039,484.36743)"
         d="m 92.599609,30.003906 a 8.0761247,8.0761247 0 0 0 -8.3125,8.072266 8.0761705,8.0761705 0 0 0 16.152341,0 8.0761247,8.0761247 0 0 0 -7.839841,-8.072266 z m 19.822271,15.34375 a 9.2875434,9.2875434 0 0 0 -9.5586,9.285156 9.2875434,9.2875434 0 0 0 18.57422,0 9.2875434,9.2875434 0 0 0 -9.01562,-9.285156 z M 96.292969,61.501953 a 10.095156,10.095156 0 0 0 -10.390625,10.089844 10.095703,10.095703 0 0 0 20.191406,0 10.095156,10.095156 0 0 0 -9.800781,-10.089844 z m 19.097651,19.761719 c -6.23507,0.0051 -11.30687,5.080285 -11.29687,11.322266 0.004,6.225519 5.0757,11.291012 11.30664,11.291012 l 0.01,0 c 6.23404,-0.006 11.29687,-5.080292 11.29687,-11.322262 -0.006,-6.22553 -5.07725,-11.291016 -11.31641,-11.291016 z m -32.728511,7.269531 c -6.67896,0.0071 -12.113515,5.442303 -12.103515,12.132817 0.0071,6.6683 5.440381,12.09375 12.113281,12.09375 l 0.0098,0 0,0.002 c 6.67896,-0.007 12.105468,-5.44425 12.105468,-12.13477 -0.0081,-6.668297 -5.44202,-12.093747 -12.125,-12.093747 z"
         style="fill:url(#linearGradient4257);fill-opacity:1"
         inkscape:connector-curvature="0" />
    </g>
    <path
       transform="translate(95,491.36748)"
       id="path4687-7-56-1-0-2-2-7"
       d="m 56.398438,120.52734 c -2.714509,0.0492 -5.402542,0.97417 -7.472657,3.14649 C 38.475381,137.21931 30,152.45522 30,170.91211 c 0,40.00634 30.35843,73 68,73 37.64044,0 68,-32.99349 68,-73 0,-18.46054 -8.48802,-33.21237 -19.5293,-47.23828 -4.14024,-4.34463 -10.11928,-3.69805 -14.4707,-0.91797 -12.73296,6.58855 -19.60525,9.22073 -34,9.15625 -13.92202,-0.0624 -21.237043,-2.33601 -33.970703,-9.27734 -2.17571,-1.3296 -4.916351,-2.1566 -7.630859,-2.10743 z M 58,134.91211 c 13.19828,7.29754 24.96911,11 40,11 15.0436,0 26.79494,-3.70251 40,-11 7.2055,10.15985 14,22.7579 14,36 0,32.80129 -24.17531,59 -54,59 -29.82612,0 -55,-26.19854 -55,-59 0,-13.22462 7.77879,-25.8322 15,-36 z m 193,6 c -24,0 -42,18 -42,42 l 0,40 12,0 0,-40 c 0,-18 12,-30 30,-30 18,0 30,12 30,30 l 0,40 12,0 0,-40 c 0,-18 12,-30 30,-30 18,0 30,12 30,30 l 0,40 12,0 0,-40 c 0,-24 -18,-42 -42,-42 -15.66528,0 -28.78428,7.6869 -36,19.6875 -7.21572,-12.0006 -20.33472,-19.6875 -36,-19.6875 z m 175,0 c -24,0 -42,18 -42,42 0,24 18,42 42,42 12,0 22.5,-4.5 30,-12 l 0,10 12,0 0,-40 c 0,-24 -18,-42 -42,-42 z m 102,0 c -24,0 -42,18 -42,42 0,24 18,42 42,42 12,0 22.5,-4.5 30,-12 l 0,12 c 0,18 -12,30 -30,30 l 0,12 c 24,0 42,-18 42,-42 l 0,-42 c 0,-24 -18,-42 -42,-42 z m 102,0 c -24,0 -42,18 -42,42 0,24 18,42 42,42 l 0,-12 c -15.90756,0 -27.10606,-9.3968 -29.5,-24 l 71.125,0 c 0.25558,-1.9564 0.375,-3.9482 0.375,-6 0,-24 -18,-42 -42,-42 z m 132,0 c -24,0 -42,18 -42,42 0,24 18,42 42,42 12,0 22.5,-4.5 30,-12 l 0,10 12,0 0,-40 c 0,-24 -18,-42 -42,-42 z m -72,2 0,80 12,0 0,-80 -12,0 z m -264,10 c 18,0 30,12 30,30 0,18 -12,30 -30,30 -18,0 -30,-12 -30,-30 0,-18 12,-30 30,-30 z m 102,0 c 18,0 30,12 30,30 0,18 -12,30 -30,30 -18,0 -30,-12 -30,-30 0,-18 12,-30 30,-30 z m 102,0 c 15.90756,0 27.10606,9.397 29.5,24 l -59,0 c 2.39394,-14.603 13.59244,-24 29.5,-24 z m 132,0 c 18,0 30,12 30,30 0,18 -12,30 -30,30 -18,0 -30,-12 -30,-30 0,-18 12,-30 30,-30 z"
       style="fill:url(#linearGradient4232);fill-opacity:1;stroke:none"
       inkscape:connector-curvature="0" />
  </g>
  <path
     style="color:#000000;clip-rule:nonzero;display:inline;overflow:visible;visibility:visible;opacity:0.2;isolation:auto;mix-blend-mode:normal;color-interpolation:sRGB;color-interpolation-filters:linearRGB;solid-color:#000000;solid-opacity:1;fill:url(#linearGradient4206);fill-opacity:1;fill-rule:nonzero;stroke:none;stroke-width:0;stroke-linecap:butt;stroke-linejoin:miter;stroke-miterlimit:4;stroke-dasharray:none;stroke-dashoffset:0;stroke-opacity:1;marker:none;color-rendering:auto;image-rendering:auto;shape-rendering:auto;text-rendering:auto;enable-background:accumulate"
     d="M 404.54492 11.574219 L 387.57422 28.544922 L 455.45508 96.425781 L 466.2832 85.597656 L 469.79883 89.113281 L 481.11328 77.798828 L 430.20117 26.886719 L 425.0293 32.058594 L 404.54492 11.574219 z M 363.37305 12.746094 L 340.74609 35.373047 L 408.62695 103.25391 L 431.25391 80.626953 L 363.37305 12.746094 z M 308.20117 31.916016 L 279.91602 60.201172 L 347.79883 128.08398 L 376.08398 99.798828 L 308.20117 31.916016 z "
     id="rect4198" />
  <path
     style="color:#000000;clip-rule:nonzero;display:inline;overflow:visible;visibility:visible;opacity:1;isolation:auto;mix-blend-mode:normal;color-interpolation:sRGB;color-interpolation-filters:linearRGB;solid-color:#000000;solid-opacity:1;fill:url(#radialGradient4381);fill-opacity:1;fill-rule:nonzero;stroke:none;stroke-width:0;stroke-linecap:butt;stroke-linejoin:miter;stroke-miterlimit:4;stroke-dasharray:none;stroke-dashoffset:0;stroke-opacity:1;marker:none;color-rendering:auto;image-rendering:auto;shape-rendering:auto;text-rendering:auto;enable-background:accumulate"
     d="m 352,8 c -8.83656,0 -16,7.163444 -16,16 0,8.836556 7.16344,16 16,16 8.83656,0 16,-7.163444 16,-16 0,-8.836556 -7.16344,-16 -16,-16 z m 44,0 c -6.62742,0 -12,5.372583 -12,12 0,6.627417 5.37258,12 12,12 6.62742,0 12,-5.372583 12,-12 0,-6.627417 -5.37258,-12 -12,-12 z M 292,24 c -11.04569,0 -20,8.954305 -20,20 0,11.045695 8.95431,20 20,20 11.04569,0 20,-8.954305 20,-20 0,-11.045695 -8.95431,-20 -20,-20 z m 132,0 c -4.41828,0 -8,3.581722 -8,8 0,4.418278 3.58172,8 8,8 4.41828,0 8,-3.581722 8,-8 0,-4.418278 -3.58172,-8 -8,-8 z m 16,16 c -2.20914,0 -4,1.790861 -4,4 0,2.209139 1.79086,4 4,4 2.20914,0 4,-1.790861 4,-4 0,-2.209139 -1.79086,-4 -4,-4 z"
     id="path4362"
     inkscape:connector-curvature="0"
     sodipodi:nodetypes="sssssssssssssssssssssssss" />
</svg>
